Cash flow - reconciliation
…
To fix this, let’s convert to the date type and fix the formating with lubridate package

Now, let’s see the spend per each billing date. We exclude the days with no spend:

# A tibble: 61 × 2
   date        spend
   <date>      <dbl>
 1 2018-08-01  2824 
 2 2018-08-02     0 
 3 2018-08-03   404.
 4 2018-08-04 11830 
 5 2018-08-05     0 
 6 2018-08-06   818 
 7 2018-08-07  2705.
 8 2018-08-08     0 
 9 2018-08-09  2053 
10 2018-08-10  1064.
# … with 51 more rows
…
